0#2021-04-18T20:49:26.295#0#й#ц
1#2021-04-18T20:49:28.012#0#й#ц
2#2021-04-18T20:49:29.052#0#ц#й
3#2021-04-18T20:49:30.027#1#й#ц
4#2021-04-18T20:49:31.284#1#й#ц
5#2021-04-18T20:49:31.567#1#ц#й
6#2021-04-18T20:49:32.715#1#ц#й
7#2021-04-18T20:49:34.178#2#й#ц
8#2021-04-18T20:49:35.048#2#ц#й
9#2021-04-18T20:49:35.352#2#й#ц
10#2021-04-19T19:54:35.532#0#q#w
11#2021-04-19T19:54:36.199#0#w#q
12#2021-04-19T19:54:38.467#0#w#q
13#2021-04-19T19:54:41.058#0#w#q
14#2021-04-19T19:54:48.503#1#q#w
15#2021-04-19T19:54:49.138#1#w#q
16#2021-04-19T19:54:50.407#1#w#q
17#2021-04-19T19:54:51.619#1#w#q
18#2021-04-19T19:54:55.390#2#q#w
19#2021-04-19T19:54:55.911#2#w#q
20#2021-04-19T19:54:56.395#2#q#w
21#2021-04-19T19:54:56.903#2#w#q
22#2021-04-19T19:54:57.894#2#w#q
23#2021-04-19T19:54:58.340#2#q#w
24#2021-04-19T19:56:55.019#0#q#w
25#2021-04-19T19:56:55.645#0#w#q
26#2021-04-19T19:56:56.206#0#q#w
27#2021-04-19T19:56:56.755#0#w#q
28#2021-04-19T19:56:57.283#0#q#w
29#2021-04-19T19:56:59.405#0#q#w
30#2021-04-19T19:56:59.990#0#w#q
31#2021-04-19T19:57:13.395#1#q#w
32#2021-04-19T19:57:13.853#1#w#q
33#2021-04-19T19:57:14.338#1#q#w
34#2021-04-19T19:57:14.794#1#w#q
35#2021-04-19T19:57:16.157#1#q#w
36#2021-04-19T19:57:16.614#1#w#q
37#2021-04-19T19:57:17.516#1#w#q
38#2021-04-19T19:57:19.003#2#q#w
39#2021-04-19T19:57:21.363#2#w#q
40#2021-04-19T19:59:04.584#0#m#n
41#2021-04-19T19:59:05.516#0#m#n
42#2021-04-19T19:59:05.928#0#n#m
43#2021-04-19T19:59:07.518#0#n#m
44#2021-04-19T19:59:07.883#0#m#n
45#2021-04-19T19:59:08.244#0#n#m
46#2021-04-19T19:59:11.294#1#n#m
47#2021-04-19T19:59:11.722#1#m#n
48#2021-04-19T19:59:12.219#1#n#m
49#2021-04-19T19:59:12.639#1#m#n
50#2021-04-19T19:59:13.038#1#n#m
51#2021-04-19T19:59:13.910#2#m#n
52#2021-04-19T19:59:14.343#2#n#m
53#2021-04-19T19:59:14.737#2#m#n
54#2021-04-19T19:59:15.854#2#n#m
55#2021-04-19T19:59:17.724#2#m#n
56#2021-04-19T20:00:14.152#0#q#w
57#2021-04-19T20:00:14.721#0#w#q
58#2021-04-19T20:00:15.104#0#q#w
59#2021-04-19T20:00:15.456#0#w#q
60#2021-04-19T20:00:15.797#0#q#w
61#2021-04-19T20:00:16.831#0#w#q
62#2021-04-19T20:00:18.592#1#q#w
63#2021-04-19T20:00:18.945#1#w#q
64#2021-04-19T20:00:19.290#1#q#w
65#2021-04-19T20:00:20.687#1#q#w
66#2021-04-19T20:00:21.030#1#w#q
67#2021-04-19T20:00:21.382#2#q#w
68#2021-04-19T20:00:21.720#2#w#q
69#2021-04-19T20:00:22.080#2#q#w
70#2021-04-19T20:00:23.459#2#q#w
71#2021-04-19T20:00:24.135#2#q#w
